(def meow {"meowwww():, uwu",(+ 2 2),{5,7},4,5,6,{"a":5}})
(write (get meow 5))
(set meow 5 2222)
(write (get (get meow 2) 0))
(write (get meow 5))
(write (geta (get meow 6) "a"))
(exit (get meow 1))
