(def start 10)
(def numone 0)
(def numtwo 1)
(def next_num numtwo)
(def count 1)
(defn fibon ((write next_num)
	 (++ count)
	 (def numone numtwo)
	 (def numtwo next_num)
	 (def next_num (+ numone numtwo))
	 (if (>= start count) (fibon) (write "end"))))

(fibon)
