(def meow "nya")
(def whar (+ 5 5))
(def huhr {5,4,3})
(def nahr {"h":meow})
(defn uwu {a} (exit 5))
(write (type meow))
(write (type whar))
(write (type huhr))
(write (type nahr))
(write (type uwu))
(uwu 5)
